{
  "formatVersion": 1,
  "database": {
    "version": 3,
    "identityHash": "674c2382ef5b9078141c1fd8addcfd25",
    "entities": [
      {
        "tableName": "users",
        "createSql": "CREATE TABLE IF NOT EXISTS `${TABLE_NAME}` (`remote_id` INTEGER NOT NULL, `name` TEXT NOT NULL, `email` TEXT NOT NULL, `active` INTEGER NOT NULL, `avatar` TEXT, `avatar_thumb` TEXT, `token` TEXT, `id` INTEGER PRIMARY KEY AUTOINCREMENT NOT NULL)",
        "fields": [
          {
            "fieldPath": "remote_id",
            "columnName": "remote_id",
            "affinity": "INTEGER",
            "notNull": true
          },
          {
            "fieldPath": "name",
            "columnName": "name",
            "affinity": "TEXT",
            "notNull": true
          },
          {
            "fieldPath": "email",
            "columnName": "email",
            "affinity": "TEXT",
            "notNull": true
          },
          {
            "fieldPath": "active",
            "columnName": "active",
            "affinity": "INTEGER",
            "notNull": true
          },
          {
            "fieldPath": "avatar",
            "columnName": "avatar",
            "affinity": "TEXT",
            "notNull": false
          },
          {
            "fieldPath": "avatar_thumb",
            "columnName": "avatar_thumb",
            "affinity": "TEXT",
            "notNull": false
          },
          {
            "fieldPath": "token",
            "columnName": "token",
            "affinity": "TEXT",
            "notNull": false
          },
          {
            "fieldPath": "id",
            "columnName": "id",
            "affinity": "INTEGER",
            "notNull": true
          }
        ],
        "primaryKey": {
          "columnNames": [
            "id"
          ],
          "autoGenerate": true
        },
        "indices": [],
        "foreignKeys": []
      }
    ],
    "views": [],
    "setupQueries": [
      "CREATE TABLE IF NOT EXISTS room_master_table (id INTEGER PRIMARY KEY,identity_hash TEXT)",
      "INSERT OR REPLACE INTO room_master_table (id,identity_hash) VALUES(42, '674c2382ef5b9078141c1fd8addcfd25')"
    ]
  }
}